{
  "podcasts": "podcast",
  "music": "song",
  "songs": "song",
  "good": "happy",
  "energetic": "happy",
  "depressed": "sad",
  "down": "sad",
  "chill": "sad",
  "chilling": "sad",
  "exercise": "gym",
  "sleepy": "sleep",
  "study": "sleep",
  "laugh": "comedy",
  "educated": "educational"
}